…
```
## `summarise()` has grouped output by 'DayOfWeek'. You can override using the `.groups` argument.
```

```r
print(Tibble_Day_Time_Cal)
```

```
## # A tibble: 42 x 3
## # Groups:   DayOfWeek [7]
##    DayOfWeek TimeOfDay     Calories
##    <chr>     <chr>            <dbl>
##  1 Friday    Afternoon        109. 
##  2 Friday    Early Morning     87.7
##  3 Friday    Evening          120. 
##  4 Friday    Late Night        69.7
##  5 Friday    Morning          106. 
##  6 Friday    Night             94.9
##  7 Monday    Afternoon        108. 
##  8 Monday    Early Morning     86.4
##  9 Monday    Evening          123. 
## 10 Monday    Late Night        68.4
## # … with 32 more rows
```
…
```
## `summarise()` has grouped output by 'DayOfWeek'. You can override using the `.groups` argument.
```

```r
print(Tibble_Day_Time_Int)
```

```
## # A tibble: 42 x 3
## # Groups:   DayOfWeek [7]
##    DayOfWeek TimeOfDay     AverageIntensity
##    <chr>     <chr>                    <dbl>
##  1 Friday    Afternoon               0.278 
##  2 Friday    Early Morning           0.129 
##  3 Friday    Evening                 0.346 
##  4 Friday    Late Night              0.0223
##  5 Friday    Morning                 0.249 
##  6 Friday    Night                   0.188 
##  7 Monday    Afternoon               0.274 
##  8 Monday    Early Morning           0.121 
##  9 Monday    Evening                 0.366 
## 10 Monday    Late Night              0.0140
## # … with 32 more rows
```
…
